Chapter 5 Manipulating Data with dplyr | Forestry 472: Ecological Monitoring and Data Analysis
…
[1] TRUE

> mn.trees.tbl <- tbl_df(mn.trees)
> is.tbl(mn.trees.tbl[, 1])

[1] TRUE

> is.data.frame(mn.trees.tbl[, 1])

[1] TRUE

> mn.trees.tbl[, 1]

# A tibble: 15,301 x 1
   StandID
     <int>
 1       1
 2       1
 3       1
 4       1
 5       1
 6       1
 7       1
 8       1
 9       1
10       1
# … with 15,291 more rows

Note, above that once the data frame is reduced to one dimension by subsetting to one column, it is no longer a data frame it has been simplified to a vector. This might not seem like a big deal; however, it can be very frustrating and potentially break your code when you expect an object to behave like a data frame and it doesn’t because it’s now a vector. Alternatively, once we convert mn.trees to a tibble via the tbl_df function the object remains a data frame even when subset down to one dimension (there is no automatic simplification). Converting data frames using tbl_df() is not required for using dplyr but is convenient. Also, it is important to note that tbl_df is simply a wrapper around a data frame that provides some additional behaviors. The newly formed tbl_df object will still behave like a data frame (because it technically still is a data frame) but will have some added niceties (some of which are illustrated below).

5.3 Filtering Data By Row

Filtering creates row subsets of data that satisfy a logical statement. Considering the mn.trees data, the filter function can be used to examine a particular set of stands, plots, trees, measurement years, species, etc. The first argument in the filter function is the data frame or tibble from which you want to select the rows based on the logical statement given in the second argument. As you work through this chapter, you’ll notice the data are specified in the first argument of all dplyr’s functions. Below are several illustrative applications of the filter function.

> filter(mn.trees.tbl, StandID == 5)

# A tibble: 450 x 10
   StandID PlotID TreeID Species  Year   Age   DBH
     <int>  <int>  <int> <fct>   <int> <int> <dbl>
 1       5     13     57 ABBA     1978     2  1.71
 2       5     13     57 ABBA     1979     3  2.12
 3       5     13     57 ABBA     1980     4  2.53
 4       5     13     57 ABBA     1981     5  2.97
 5       5     13     57 ABBA     1982     6  3.48
 6       5     13     57 ABBA     1983     7  3.98
 7       5     13     57 ABBA     1984     8  4.33
 8       5     13     57 ABBA     1985     9  4.70
 9       5     13     57 ABBA     1986    10  5.07
10       5     13     57 ABBA     1987    11  5.39
# … with 440 more rows, and 3 more variables:
#   rad.inc <dbl>, BA.inc <dbl>, UTreeID <int>

> filter(mn.trees.tbl, Species %in% c("ABBA", "PIST"))

# A tibble: 2,876 x 10
   StandID PlotID TreeID Species  Year   Age   DBH
     <int>  <int>  <int> <fct>   <int> <int> <dbl>
 1       1      1      1 ABBA     1978    19  5.23
 2       1      1      1 ABBA     1979    20  5.44
 3       1      1      1 ABBA     1980    21  5.56
 4       1      1      1 ABBA     1981    22  5.75
 5       1      1      1 ABBA     1982    23  5.99
 6       1      1      1 ABBA     1983    24  6.24
 7       1      1      1 ABBA     1984    25  6.53
 8       1      1      1 ABBA     1985    26  6.84
 9       1      1      1 ABBA     1986    27  7.10
10       1      1      1 ABBA     1987    28  7.38
# … with 2,866 more rows, and 3 more variables:
#   rad.inc <dbl>, BA.inc <dbl>, UTreeID <int>

> filter(mn.trees.tbl, DBH > 12 & Year == 1980)

# A tibble: 228 x 10
   StandID PlotID TreeID Species  Year   Age   DBH
     <int>  <int>  <int> <fct>   <int> <int> <dbl>
 1       1      1      4 BEPA     1980    74  16.6
 2       1      2      8 BEPA     1980    92  19.8
 3       1      2      9 BEPA     1980    75  13.9
 4       1      2     10 BEPA     1980    98  20.8
 5       2      4     14 BEPA     1980    98  19.5
 6       2      4     15 BEPA     1980   124  21.3
 7       2      4     16 BEPA     1980   116  18.4
 8       2      4     17 PIGL     1980    34  12.6
 9       2      5     18 PIGL     1980    34  12.4
10       2      5     19 PIRE     1980   242  58.4
# … with 218 more rows, and 3 more variables:
#   rad.inc <dbl>, BA.inc <dbl>, UTreeID <int>

> filter(mn.trees.tbl, Species %in% c("ABBA", "PIST") & Year == 
+   1985)

# A tibble: 87 x 10
   StandID PlotID TreeID Species  Year   Age   DBH
     <int>  <int>  <int> <fct>   <int> <int> <dbl>
 1       1      1      1 ABBA     1985    26  6.84
 2       1      1      2 ABBA     1985    41  7.81
 3       1      2      6 ABBA     1985    19  6.16
 4       1      2      7 ABBA     1985    16 10.9 
 5       1      3     11 ABBA     1985    40 12.2 
 6       2      5     21 PIST     1985   149 35.9 
 7       2      6     22 ABBA     1985    33 12.3 
 8       3      7     28 PIST     1985    49 10.5 
 9       3      7     29 PIST     1985    48 17.7 
10       3      7     30 PIST     1985    52 22.4 
# … with 77 more rows, and 3 more variables:
#   rad.inc <dbl>, BA.inc <dbl>, UTreeID <int>

Notice the full results are not printed. For example, when we asked for the data for stand 5, only the first ten rows were printed. This is an effect of using the tbl_df function. Of course if we wanted to analyze the results (as we will below) the full set of data would be available.

5.4 Selecting Variables by Column

Another common task is to restrict attention to some subset of variables in the data set. This is accomplished using the select function. Like filter, the data frame or tibble is the first argument in the select function, followed by additional arguments identifying variables you want to include or exclude. Consider the examples below.

> dplyr::select(mn.trees.tbl, Year, DBH)

# A tibble: 15,301 x 2
    Year   DBH
   <int> <dbl>
 1  1978  5.23
 2  1979  5.44
 3  1980  5.56
 4  1981  5.75
 5  1982  5.99
 6  1983  6.24
 7  1984  6.53
 8  1985  6.84
 9  1986  7.10
10  1987  7.38
# … with 15,291 more rows

> dplyr::select(mn.trees.tbl, 2:4)

# A tibble: 15,301 x 3
   PlotID TreeID Species
    <int>  <int> <fct>  
 1      1      1 ABBA   
 2      1      1 ABBA   
 3      1      1 ABBA   
 4      1      1 ABBA   
 5      1      1 ABBA   
 6      1      1 ABBA   
 7      1      1 ABBA   
 8      1      1 ABBA   
 9      1      1 ABBA   
10      1      1 ABBA   
# … with 15,291 more rows

> dplyr::select(mn.trees.tbl, -c(2, 3, 4))

# A tibble: 15,301 x 7
   StandID  Year   Age   DBH rad.inc BA.inc UTreeID
     <int> <int> <int> <dbl>   <dbl>  <dbl>   <int>
 1       1  1978    19  5.23   0.92    1.48       1
 2       1  1979    20  5.44   1.03    1.73       1
 3       1  1980    21  5.56   0.61    1.05       1
 4       1  1981    22  5.75   0.935   1.66       1
 5       1  1982    23  5.99   1.25    2.30       1
 6       1  1983    24  6.24   1.20    2.31       1
 7       1  1984    25  6.53   1.50    3.00       1
 8       1  1985    26  6.84   1.54    3.25       1
 9       1  1986    27  7.10   1.28    2.81       1
10       1  1987    28  7.38   1.38    3.14       1
# … with 15,291 more rows

> dplyr::select(mn.trees.tbl, ends_with("ID"))

# A tibble: 15,301 x 4
   StandID PlotID TreeID UTreeID
     <int>  <int>  <int>   <int>
 1       1      1      1       1
 2       1      1      1       1
 3       1      1      1       1
 4       1      1      1       1
 5       1      1      1       1
 6       1      1      1       1
 7       1      1      1       1
 8       1      1      1       1
 9       1      1      1       1
10       1      1      1       1
# … with 15,291 more rows

Notice a few things. Variables can be selected by name or column number. As usual a negative sign tells R to leave something out. Also, there are special helper functions such as ends_with that provide ways to match part of a variable’s name. Other very handy helper functions you should investigate are begins_with, contains, matches, num_range, one_of, and everything.

5.5 Pipes

Consider selecting the Age and rad.inc for the two aspen species POTR or POGR (Populus tremuloides and Populus grandifolia). One possibility is to nest a filter call within select.

> dplyr::select(filter(mn.trees.tbl, Species %in% c("POTR", 
+   "POGR")), Age, rad.inc)

# A tibble: 719 x 2
     Age rad.inc
   <int>   <dbl>
 1    55   0.935
 2    56   0.7  
 3    57   0.25 
 4    58   0.595
 5    59   1.28 
 6    60   1.34 
 7    61   1.14 
 8    62   1.20 
 9    63   1.09 
10    64   0.975
# … with 709 more rows

Even a two-step process like this becomes hard to follow in this nested form, and often we will want to perform more than two operations. There is a nice feature in dplyr that allows us to “feed” results of one function into the first argument of a subsequent function. Another way of saying this is that we are “piping” the results into another function. The %>% operator does the piping.

> mn.trees.tbl %>% 
+   filter(Species %in% c("POTR", "POGR")) %>% 
+   dplyr::select(Age, rad.inc)

# A tibble: 719 x 2
     Age rad.inc
   <int>   <dbl>
 1    55   0.935
 2    56   0.7  
 3    57   0.25 
 4    58   0.595
 5    59   1.28 
 6    60   1.34 
 7    61   1.14 
 8    62   1.20 
 9    63   1.09 
10    64   0.975
# … with 709 more rows
…
This is convenient ordering for these data. But what if we wanted to change the order to be by Species then Year? The arrange function makes this easy. The following examples illustrate arrange but also use pipes to simplify code and select to focus attention on the columns of interest.

Let’s start with arranging in ascending order BA.inc for tree 1 in plot 1 in stand 1.

> mn.trees.tbl %>% 
+   filter(StandID == 1 & PlotID == 1 & TreeID == 1) %>% 
+   dplyr::select(StandID, PlotID, TreeID, BA.inc) %>% 
+   arrange(BA.inc) 

# A tibble: 30 x 4
   StandID PlotID TreeID BA.inc
     <int>  <int>  <int>  <dbl>
 1       1      1      1  0.501
 2       1      1      1  0.615
 3       1      1      1  1.05 
 4       1      1      1  1.18 
 5       1      1      1  1.35 
 6       1      1      1  1.38 
 7       1      1      1  1.42 
 8       1      1      1  1.48 
 9       1      1      1  1.66 
10       1      1      1  1.73 
# … with 20 more rows

Possibly we want these data to be in decreasing (descending) order. Here, desc() is one of many dplyr helper functions.

> mn.trees.tbl %>% 
+   filter(StandID == 1 & PlotID == 1 & TreeID == 1) %>% 
+   dplyr::select(StandID, PlotID, TreeID, BA.inc) %>% 
+   arrange(desc(BA.inc))

# A tibble: 30 x 4
   StandID PlotID TreeID BA.inc
     <int>  <int>  <int>  <dbl>
 1       1      1      1   4.45
 2       1      1      1   4.33
 3       1      1      1   3.67
 4       1      1      1   3.65
 5       1      1      1   3.59
 6       1      1      1   3.46
 7       1      1      1   3.25
 8       1      1      1   3.23
 9       1      1      1   3.16
10       1      1      1   3.14
# … with 20 more rows

Passing multiple variables to arrange results in nested ordering. The subsequent code orders first by Species, then Year within Species, then BA.inc within Year and Species.

> mn.trees.tbl %>% 
+   dplyr::select(Species, Year, BA.inc) %>% 
+   arrange(Species, Year, BA.inc) 

# A tibble: 15,301 x 3
   Species  Year BA.inc
   <fct>   <int>  <dbl>
 1 ABBA     1978  0.253
 2 ABBA     1978  0.368
 3 ABBA     1978  0.416
 4 ABBA     1978  0.560
 5 ABBA     1978  0.620
 6 ABBA     1978  0.650
 7 ABBA     1978  0.672
 8 ABBA     1978  0.676
 9 ABBA     1978  0.699
10 ABBA     1978  0.760
# … with 15,291 more rows
…
# A tibble: 2 x 2
  d     a.sum
  <chr> <int>
1 Bobby     7
2 Jerry     3

We can specify multiple variables with group_by to define the categories to summarize. Let’s return to the mn.trees data set and find the sum of annual radial growth increment by species within each stand.

> stand.spp <- mn.trees.tbl %>% 
+   group_by(StandID, Species) %>% 
+   summarize(rad.inc.total = sum(rad.inc.mm), 
+             BA.inc.total = sum(BA.inc.cm2))
> stand.spp

# A tibble: 115 x 4
# Groups:   StandID [35]
   StandID Species rad.inc.total BA.inc.total
     <int> <fct>           <dbl>        <dbl>
 1       1 ABBA            109.         309. 
 2       1 BEPA            122.         733. 
 3       1 PIGL             58.0        121. 
 4       2 ABBA             88.8        262. 
 5       2 BEPA            101.         488. 
 6       2 PIGL             86.3        431. 
 7       2 PIRE             35.7        510. 
 8       2 PIST             60.3        749. 
 9       3 ABBA             57.6        135. 
10       3 PIGL             21.1         94.8
# … with 105 more rows
…
5.10 Counts

In many circumstances it is useful to know how many rows are being summarized. Continuing the previous example, say we want to know how many increment measurements comprise a given StandID and Species combination and, hence, went into the rad.inc.total and BA.inc.total summaries. The n function returns the count of rows per group (or number of rows in an ungrouped tibble). Below, I add a new variable called n.inc to the our previous stand.spp.

> stand.spp <- mn.trees.tbl %>%
+   group_by(StandID, Species) %>% 
+   summarize(rad.inc.total = sum(rad.inc.mm), 
+             BA.inc.total = sum(BA.inc.cm2),
+             n.inc = n())
> stand.spp

# A tibble: 115 x 5
# Groups:   StandID [35]
   StandID Species rad.inc.total BA.inc.total n.inc
     <int> <fct>           <dbl>        <dbl> <int>
 1       1 ABBA            109.         309.    150
 2       1 BEPA            122.         733.    150
 3       1 PIGL             58.0        121.     54
 4       2 ABBA             88.8        262.     45
 5       2 BEPA            101.         488.    180
 6       2 PIGL             86.3        431.     90
 7       2 PIRE             35.7        510.     60
 8       2 PIST             60.3        749.     30
 9       3 ABBA             57.6        135.     30
10       3 PIGL             21.1         94.8    60
# … with 105 more rows

This is helpful. We now know how many individual increment measurements were used to compute the summaries. However, it is not clear how many trees were actually cored to generate these measurements. We can get at the count of unique trees in each group by using the n_distinct helper function.

> stand.spp <- mn.trees.tbl %>% group_by(StandID, Species) %>% 
+     summarize(rad.inc.total = sum(rad.inc.mm), 
+               BA.inc.total = sum(BA.inc.cm2),
+               n.inc = n(),
+               n.trees = n_distinct(PlotID, TreeID))
> stand.spp

# A tibble: 115 x 6
# Groups:   StandID [35]
   StandID Species rad.inc.total BA.inc.total n.inc
     <int> <fct>           <dbl>        <dbl> <int>
 1       1 ABBA            109.         309.    150
 2       1 BEPA            122.         733.    150
 3       1 PIGL             58.0        121.     54
 4       2 ABBA             88.8        262.     45
 5       2 BEPA            101.         488.    180
 6       2 PIGL             86.3        431.     90
 7       2 PIRE             35.7        510.     60
 8       2 PIST             60.3        749.     30
 9       3 ABBA             57.6        135.     30
10       3 PIGL             21.1         94.8    60
# … with 105 more rows, and 1 more variable:
#   n.trees <int>
…
