Chapter 8 Spatial Data Visualization and Analysis | Forestry 472: Ecological Monitoring and Data Analysis
…
There is something subtle and easy to miss in the code above. Notice the aes function arguments in geom_points take geographic longitude and latitude, x and y respectively, from the points data frame (but recall easting and northing were in UTM zone 19). This works because we applied spTransform to reproject the points SpatialPointsDataFrame to geographic coordinates. sp then replaces the values in easting and northing columns with the reprojected coordinate values when converting a SpatialPointsDataFrame to a data frame via as.data.frame().

Foresters use the inventory plot measurements to estimate forest variables within management units, e.g., the average or total management unit biomass. Next we’ll make a plot with management unit polygons colored by average biomass_mg_ha.

> mu.bio <- plots@data %>% group_by(mu_id) %>% 
+     summarize(biomass_mu = mean(biomass_mg_ha))
> print(mu.bio)

# A tibble: 33 x 2
   mu_id biomass_mu
   <chr>      <dbl>
 1 C12        124. 
 2 C15         49.9
 3 C16        128. 
 4 C17        112. 
 5 C20        121. 
 6 C21        134. 
 7 C22         65.2
 8 C23A       108. 
 9 C23B       153. 
10 C24        126. 
# … with 23 more rows
…
